,1,2,3,4,5,6,7,8,9,10,11,12,13,14,15,16,17,18,19,20,date,0
EventRootCode,11723.0,6142.0,5348.0,19810.0,7527.0,1829.0,2720.0,3820.0,1823.0,1049.0,5733.0,2148.0,1314.0,688.0,314.0,771.0,4614.0,1523.0,6370.0,30.0,2019_01_01,
EventRootCode,17471.0,9285.0,8509.0,28784.0,10458.0,3152.0,4636.0,5751.0,2684.0,1780.0,8484.0,3445.0,1632.0,1131.0,360.0,1096.0,6422.0,1799.0,8231.0,26.0,2019_01_02,
EventRootCode,21050.0,10438.0,10658.0,34106.0,11211.0,3661.0,5325.0,6193.0,3201.0,2122.0,10068.0,4416.0,2104.0,1278.0,433.0,1390.0,8132.0,2239.0,9489.0,29.0,2019_01_03,
EventRootCode,20850.0,10612.0,10245.0,34421.0,10549.0,3613.0,5316.0,6245.0,3385.0,1965.0,9576.0,3922.0,2245.0,1099.0,495.0,1420.0,8525.0,2030.0,8788.0,34.0,2019_01_04,
EventRootCode,13955.0,6834.0,6409.0,22539.0,6796.0,2140.0,3365.0,3923.0,2273.0,1393.0,6176.0,2499.0,1443.0,779.0,393.0,886.0,5439.0,1527.0,6123.0,18.0,2019_01_05,
EventRootCode,11880.0,6193.0,5911.0,22298.0,6608.0,1837.0,2991.0,3746.0,1688.0,1296.0,5317.0,2295.0,1268.0,852.0,320.0,870.0,4292.0,1364.0,6306.0,36.0,2019_01_06,
EventRootCode,19766.0,10068.0,9689.0,33374.0,10717.0,3245.0,4754.0,5939.0,2707.0,1957.0,9515.0,3796.0,2078.0,1319.0,430.0,1323.0,6847.0,2181.0,8858.0,31.0,2019_01_07,
EventRootCode,24363.0,12079.0,12343.0,40210.0,12235.0,3875.0,5776.0,7217.0,3276.0,2422.0,11140.0,4622.0,2234.0,1635.0,511.0,2005.0,8575.0,2588.0,9566.0,38.0,2019_01_08,
EventRootCode,26014.0,13082.0,13444.0,41779.0,12883.0,3930.0,6396.0,6927.0,3699.0,2530.0,11313.0,4758.0,2430.0,1522.0,535.0,2000.0,8978.0,2793.0,8626.0,30.0,2019_01_09,
EventRootCode,24943.0,12897.0,13480.0,42155.0,13492.0,3923.0,6373.0,6773.0,3537.0,2189.0,11562.0,4935.0,2492.0,1533.0,424.0,2041.0,8852.0,2483.0,8509.0,37.0,2019_01_10,
EventRootCode,24529.0,12061.0,12562.0,38784.0,12578.0,3895.0,6280.0,7009.0,3673.0,2188.0,11348.0,4546.0,2294.0,1661.0,502.0,1843.0,8662.0,2494.0,9396.0,18.0,2019_01_11,
EventRootCode,16189.0,7883.0,7519.0,27250.0,8187.0,2167.0,4135.0,4621.0,2415.0,1378.0,7315.0,2907.0,1513.0,1254.0,329.0,1149.0,5896.0,1675.0,6422.0,23.0,2019_01_12,
EventRootCode,14061.0,7003.0,6729.0,23857.0,7582.0,1769.0,3314.0,3838.0,2015.0,1290.0,6103.0,2596.0,1549.0,1022.0,315.0,976.0,4664.0,1244.0,6406.0,20.0,2019_01_13,3.0
EventRootCode,22013.0,11398.0,11879.0,39533.0,12132.0,3737.0,5388.0,5935.0,3312.0,2007.0,10787.0,4121.0,2673.0,1499.0,452.0,1364.0,8033.0,2298.0,8934.0,36.0,2019_01_14,
EventRootCode,26468.0,13552.0,12857.0,43948.0,14016.0,4168.0,6374.0,7094.0,3668.0,2408.0,12456.0,5082.0,2733.0,1585.0,463.0,1639.0,9178.0,2633.0,9228.0,57.0,2019_01_15,
EventRootCode,27274.0,14278.0,13861.0,43803.0,14342.0,4008.0,6612.0,7337.0,3687.0,2464.0,12933.0,5387.0,2761.0,1662.0,490.0,1739.0,9068.0,2732.0,9958.0,47.0,2019_01_16,
EventRootCode,27131.0,13510.0,13395.0,44218.0,13758.0,4160.0,6540.0,7245.0,3790.0,2343.0,11456.0,4994.0,2615.0,1529.0,593.0,1873.0,9530.0,3181.0,10202.0,56.0,2019_01_17,
EventRootCode,25752.0,12730.0,13315.0,45759.0,13699.0,3830.0,6126.0,6645.0,3631.0,2281.0,11235.0,4512.0,2441.0,1586.0,594.0,2039.0,9235.0,2813.0,9655.0,65.0,2019_01_18,
EventRootCode,17069.0,8711.0,8246.0,30411.0,9045.0,2356.0,4026.0,4403.0,2214.0,1621.0,7507.0,3080.0,1557.0,1328.0,287.0,1191.0,6154.0,1820.0,7722.0,48.0,2019_01_19,
EventRootCode,13733.0,7343.0,6315.0,24814.0,8048.0,1930.0,3173.0,3428.0,1727.0,1275.0,6845.0,2391.0,1324.0,1425.0,313.0,887.0,4384.0,1403.0,6643.0,29.0,2019_01_20,
EventRootCode,20679.0,10574.0,10674.0,37591.0,12047.0,3315.0,4683.0,5149.0,2758.0,1871.0,9890.0,3714.0,2423.0,1626.0,491.0,1486.0,6380.0,2420.0,9438.0,56.0,2019_01_21,
EventRootCode,24780.0,12808.0,12307.0,42955.0,14314.0,3833.0,6013.0,6532.0,3521.0,2274.0,11298.0,4315.0,2555.0,1692.0,391.0,1540.0,8513.0,2552.0,9938.0,53.0,2019_01_22,
EventRootCode,26855.0,13578.0,13503.0,44225.0,15138.0,4296.0,6355.0,6785.0,3611.0,2312.0,11563.0,4814.0,2966.0,1820.0,466.0,1596.0,9346.0,2707.0,9368.0,30.0,2019_01_23,
EventRootCode,27193.0,13911.0,13548.0,44186.0,16905.0,4432.0,6611.0,7047.0,3654.0,2477.0,12469.0,4979.0,3178.0,1937.0,537.0,1827.0,10093.0,2957.0,9854.0,35.0,2019_01_24,
EventRootCode,25194.0,13301.0,12452.0,41171.0,15533.0,3994.0,6362.0,6633.0,3584.0,2220.0,11912.0,4637.0,2639.0,1631.0,480.0,1887.0,10142.0,2717.0,9696.0,39.0,2019_01_25,
EventRootCode,16241.0,8290.0,7204.0,26472.0,10490.0,2266.0,3733.0,3979.0,2378.0,1548.0,7763.0,2961.0,1754.0,1293.0,353.0,1238.0,5916.0,1711.0,6456.0,15.0,2019_01_26,
EventRootCode,14118.0,7038.0,6261.0,23113.0,8798.0,1903.0,3307.0,3633.0,1857.0,1313.0,6656.0,2494.0,1723.0,1055.0,296.0,1076.0,4687.0,1388.0,6634.0,32.0,2019_01_27,
EventRootCode,22571.0,11984.0,11111.0,37588.0,13802.0,3479.0,5521.0,6363.0,3169.0,2046.0,10696.0,4013.0,2658.0,1620.0,568.0,1623.0,7801.0,1946.0,8888.0,43.0,2019_01_28,
EventRootCode,27457.0,14299.0,13611.0,43292.0,15727.0,4299.0,6607.0,7465.0,3834.0,2574.0,12942.0,4953.0,2989.0,1516.0,599.0,2195.0,10186.0,2836.0,10701.0,24.0,2019_01_29,1.0
EventRootCode,27923.0,14607.0,13980.0,43805.0,15066.0,4268.0,6578.0,7418.0,3799.0,2399.0,12647.0,5117.0,3117.0,1611.0,563.0,2086.0,9998.0,2697.0,9635.0,51.0,2019_01_30,
EventRootCode,26364.0,14005.0,13270.0,43592.0,15222.0,4598.0,6750.0,7472.0,3928.0,2347.0,12453.0,5110.0,2895.0,1755.0,592.0,1802.0,9812.0,2713.0,9379.0,38.0,2019_01_31,
EventRootCode,25751.0,13198.0,12690.0,42712.0,15888.0,4348.0,6471.0,7183.0,3515.0,2287.0,12065.0,4945.0,2658.0,1598.0,493.0,1893.0,9110.0,2615.0,9274.0,36.0,2019_02_01,
EventRootCode,16287.0,8453.0,7363.0,26324.0,9560.0,2496.0,3577.0,4429.0,2120.0,1566.0,7152.0,3195.0,1462.0,1131.0,340.0,1260.0,5805.0,1641.0,6214.0,50.0,2019_02_02,
EventRootCode,14034.0,7533.0,6726.0,25335.0,8488.0,2112.0,3379.0,3816.0,1769.0,1374.0,6248.0,2581.0,1604.0,1212.0,318.0,1009.0,4633.0,1304.0,5457.0,26.0,2019_02_03,
EventRootCode,22116.0,11872.0,11681.0,39896.0,14137.0,3659.0,5635.0,5988.0,2900.0,2014.0,10012.0,4133.0,2289.0,1646.0,474.0,1451.0,7320.0,2180.0,8611.0,46.0,2019_02_04,
EventRootCode,26412.0,13773.0,13711.0,44661.0,16031.0,4355.0,6621.0,7154.0,3481.0,2363.0,11374.0,5038.0,2545.0,1558.0,520.0,1544.0,8605.0,3027.0,9759.0,41.0,2019_02_05,
EventRootCode,27302.0,14167.0,14242.0,45921.0,16394.0,4216.0,6919.0,7855.0,3699.0,2382.0,12820.0,5540.0,2902.0,1597.0,574.0,1689.0,8930.0,2912.0,9832.0,32.0,2019_02_06,
EventRootCode,26500.0,13947.0,13572.0,44167.0,15184.0,4212.0,6526.0,7005.0,4050.0,2439.0,11981.0,4916.0,2734.0,1713.0,529.0,1690.0,9047.0,2893.0,9175.0,54.0,2019_02_07,
EventRootCode,26413.0,13475.0,12898.0,41810.0,14624.0,4135.0,6185.0,6652.0,3898.0,2384.0,11804.0,4890.0,2549.0,1609.0,370.0,1691.0,8999.0,2977.0,9450.0,43.0,2019_02_08,
EventRootCode,16708.0,8706.0,7860.0,27620.0,9341.0,2330.0,3761.0,4201.0,2377.0,1587.0,7639.0,3120.0,1566.0,1252.0,301.0,1086.0,5814.0,2075.0,6744.0,17.0,2019_02_09,
EventRootCode,14622.0,7499.0,6987.0,25175.0,8516.0,2068.0,3362.0,3874.0,1875.0,1325.0,6653.0,2624.0,1456.0,1171.0,265.0,950.0,4789.0,1679.0,6020.0,32.0,2019_02_10,
EventRootCode,22681.0,11916.0,12337.0,41449.0,13965.0,3561.0,5857.0,6162.0,3397.0,2053.0,10685.0,4179.0,2347.0,1843.0,466.0,1317.0,7522.0,2584.0,8478.0,75.0,2019_02_11,
EventRootCode,26976.0,14426.0,13987.0,46223.0,15217.0,4476.0,6444.0,6902.0,3657.0,2270.0,12654.0,4722.0,2791.0,2021.0,447.0,1639.0,9726.0,3041.0,9428.0,59.0,2019_02_12,
EventRootCode,27851.0,14861.0,14340.0,47051.0,16333.0,4230.0,6654.0,7058.0,3822.0,2431.0,13171.0,5080.0,3067.0,1881.0,422.0,1867.0,10385.0,3481.0,10508.0,78.0,2019_02_13,
EventRootCode,28282.0,14500.0,14600.0,50282.0,16684.0,4618.0,6525.0,7507.0,3965.0,2692.0,13933.0,5367.0,2858.0,1636.0,537.0,1928.0,9752.0,3632.0,11134.0,125.0,2019_02_14,
EventRootCode,27558.0,13704.0,13709.0,46194.0,15392.0,4353.0,6514.0,7036.0,3501.0,2571.0,13974.0,5039.0,2701.0,2016.0,589.0,1803.0,8908.0,3118.0,11929.0,73.0,2019_02_15,
EventRootCode,19121.0,9401.0,8798.0,32949.0,10061.0,2769.0,4383.0,4641.0,2339.0,1829.0,9904.0,3312.0,1860.0,1412.0,413.0,1406.0,6508.0,2375.0,8572.0,45.0,2019_02_16,
EventRootCode,14649.0,7083.0,6706.0,25246.0,7619.0,2119.0,3217.0,3711.0,1790.0,1346.0,7127.0,2512.0,1566.0,1000.0,270.0,1024.0,4518.0,1820.0,6702.0,21.0,2019_02_17,
EventRootCode,21970.0,11577.0,11537.0,39940.0,13044.0,3995.0,5238.0,6314.0,2935.0,2200.0,11242.0,4418.0,2348.0,1739.0,503.0,1754.0,7547.0,2433.0,9693.0,27.0,2019_02_18,
EventRootCode,27222.0,14039.0,14201.0,46991.0,15578.0,4535.0,6724.0,6948.0,3763.0,2271.0,13341.0,4987.0,2956.0,1915.0,476.0,1853.0,8701.0,2840.0,10197.0,32.0,2019_02_19,
EventRootCode,29019.0,15421.0,14627.0,49543.0,16240.0,4893.0,6788.0,7408.0,4047.0,2604.0,14082.0,5390.0,3126.0,1868.0,493.0,1944.0,10185.0,3209.0,10403.0,54.0,2019_02_20,
EventRootCode,28866.0,14552.0,14524.0,48647.0,16068.0,4643.0,6466.0,7314.0,4187.0,2429.0,13411.0,5455.0,3186.0,1762.0,550.0,1862.0,10446.0,2944.0,10268.0,44.0,2019_02_21,
EventRootCode,27502.0,13736.0,13392.0,46117.0,15395.0,4367.0,6369.0,7071.0,3665.0,2404.0,12934.0,5252.0,2880.0,1644.0,610.0,1826.0,10688.0,2951.0,10486.0,34.0,2019_02_22,
EventRootCode,17834.0,8807.0,8500.0,29516.0,9629.0,2538.0,4033.0,4682.0,2221.0,1638.0,8243.0,3233.0,1833.0,1420.0,523.0,1131.0,6670.0,2216.0,7808.0,40.0,2019_02_23,
EventRootCode,15049.0,7322.0,7846.0,28368.0,8878.0,2367.0,3393.0,3937.0,1875.0,1459.0,7013.0,2720.0,1682.0,1172.0,457.0,989.0,5178.0,1743.0,7126.0,40.0,2019_02_24,
EventRootCode,23477.0,12331.0,13051.0,44781.0,14915.0,4311.0,5704.0,6502.0,3152.0,2216.0,11041.0,4372.0,2556.0,1611.0,483.0,1631.0,8069.0,2662.0,9159.0,75.0,2019_02_25,
EventRootCode,27565.0,14127.0,14117.0,48947.0,16750.0,4328.0,6186.0,7546.0,3479.0,2659.0,12748.0,5368.0,3032.0,1695.0,702.0,1762.0,9507.0,2900.0,11288.0,87.0,2019_02_26,
EventRootCode,30657.0,16242.0,15099.0,53455.0,18112.0,4751.0,6626.0,7465.0,3833.0,2613.0,13967.0,5816.0,3204.0,1712.0,858.0,2040.0,10990.0,3251.0,12688.0,60.0,2019_02_27,
EventRootCode,30227.0,16496.0,15449.0,52988.0,17569.0,4575.0,6603.0,8395.0,3923.0,2656.0,13414.0,5821.0,2892.0,1697.0,682.0,2138.0,10466.0,3111.0,11379.0,52.0,2019_02_28,
EventRootCode,26867.0,14021.0,14074.0,48045.0,16287.0,4218.0,6161.0,8609.0,3521.0,2363.0,12596.0,5561.0,2659.0,1773.0,554.0,1756.0,9904.0,2959.0,10924.0,83.0,2019_03_01,
EventRootCode,17519.0,8825.0,8307.0,30509.0,10123.0,2559.0,3654.0,5251.0,2162.0,1525.0,8305.0,3105.0,1750.0,1391.0,455.0,1187.0,6261.0,2184.0,8137.0,47.0,2019_03_02,
EventRootCode,14866.0,7424.0,6864.0,26292.0,8493.0,2160.0,3299.0,3968.0,2077.0,1307.0,7015.0,2953.0,1471.0,1237.0,523.0,946.0,4951.0,1896.0,6842.0,23.0,2019_03_03,
EventRootCode,23437.0,11864.0,11521.0,44474.0,14332.0,4071.0,5810.0,6391.0,3685.0,2096.0,11589.0,4478.0,2513.0,1707.0,619.0,1693.0,8535.0,2611.0,9925.0,57.0,2019_03_04,
EventRootCode,26584.0,13605.0,12975.0,45028.0,15495.0,4397.0,6356.0,7201.0,3976.0,2239.0,12283.0,4967.0,2611.0,2056.0,553.0,1602.0,9671.0,2817.0,10332.0,66.0,2019_03_05,
EventRootCode,27200.0,14136.0,13766.0,46233.0,15358.0,4509.0,6826.0,7124.0,3836.0,2596.0,12703.0,5242.0,2740.0,1925.0,515.0,1782.0,9474.0,2976.0,10042.0,51.0,2019_03_06,
EventRootCode,27600.0,14099.0,12780.0,46969.0,16204.0,4520.0,6415.0,6839.0,3847.0,2498.0,13541.0,5006.0,2886.0,1853.0,565.0,1688.0,10215.0,3180.0,10467.0,71.0,2019_03_07,
EventRootCode,26127.0,13843.0,12541.0,43813.0,15934.0,3995.0,6036.0,6948.0,3592.0,2435.0,13010.0,4854.0,2515.0,2192.0,569.0,1534.0,10710.0,2861.0,9944.0,64.0,2019_03_08,
EventRootCode,16602.0,8638.0,7513.0,29379.0,9667.0,2220.0,3719.0,4446.0,2308.0,1457.0,8229.0,3026.0,1634.0,1432.0,367.0,988.0,6750.0,1895.0,7221.0,20.0,2019_03_09,
EventRootCode,14911.0,7611.0,6434.0,26077.0,7832.0,2226.0,3114.0,3884.0,1918.0,1239.0,6943.0,2604.0,1318.0,1376.0,310.0,745.0,4565.0,1432.0,6856.0,14.0,2019_03_10,
EventRootCode,23727.0,11871.0,12268.0,44463.0,14139.0,4090.0,5629.0,6296.0,3618.0,2063.0,10625.0,4284.0,2063.0,1876.0,457.0,1464.0,7252.0,2344.0,9675.0,29.0,2019_03_11,
EventRootCode,27218.0,13802.0,13865.0,48017.0,15156.0,4403.0,6548.0,6743.0,4061.0,2380.0,12072.0,5055.0,2472.0,1928.0,451.0,2570.0,9940.0,2805.0,9816.0,34.0,2019_03_12,
EventRootCode,28060.0,14331.0,13757.0,45907.0,14889.0,4293.0,6348.0,6802.0,3778.0,2687.0,12969.0,5586.0,2644.0,2033.0,486.0,2335.0,11107.0,2919.0,9474.0,69.0,2019_03_13,
EventRootCode,27893.0,14667.0,13967.0,48748.0,16143.0,4457.0,6693.0,7327.0,3983.0,2830.0,13783.0,5944.0,2775.0,2182.0,498.0,2070.0,10895.0,2845.0,10920.0,52.0,2019_03_14,
EventRootCode,27667.0,13556.0,12127.0,45152.0,15129.0,4469.0,6071.0,6501.0,3893.0,2411.0,14400.0,5093.0,2790.0,2732.0,600.0,2224.0,9611.0,2894.0,13976.0,146.0,2019_03_15,
EventRootCode,16914.0,7784.0,7492.0,28421.0,9271.0,2626.0,3482.0,4010.0,2316.0,1445.0,9355.0,2960.0,1558.0,1727.0,452.0,1163.0,5995.0,1891.0,9950.0,179.0,2019_03_16,
EventRootCode,14655.0,7070.0,6709.0,26399.0,8186.0,2396.0,3208.0,3549.0,2041.0,1168.0,7669.0,2551.0,1346.0,1275.0,330.0,975.0,5178.0,1594.0,9862.0,121.0,2019_03_17,
EventRootCode,24740.0,12652.0,12272.0,43771.0,14265.0,4303.0,5905.0,6125.0,3778.0,2168.0,12576.0,4412.0,2375.0,1905.0,612.0,1602.0,8756.0,2819.0,13722.0,192.0,2019_03_18,
EventRootCode,28652.0,14893.0,13728.0,49588.0,16140.0,4575.0,7041.0,7661.0,4181.0,2408.0,14016.0,5204.0,2858.0,1975.0,590.0,1722.0,10215.0,3000.0,13153.0,145.0,2019_03_19,
EventRootCode,28326.0,14961.0,14464.0,48510.0,16636.0,4520.0,7017.0,6960.0,3722.0,2348.0,13957.0,5215.0,2813.0,2010.0,585.0,1645.0,10134.0,2852.0,12429.0,110.0,2019_03_20,
EventRootCode,26527.0,13429.0,13368.0,45463.0,16458.0,4673.0,6842.0,6509.0,3837.0,2309.0,12860.0,4733.0,2522.0,1798.0,466.0,1672.0,9573.0,2906.0,11122.0,134.0,2019_03_21,
EventRootCode,25920.0,12901.0,12286.0,44568.0,15824.0,4147.0,6122.0,6249.0,3650.0,2347.0,12836.0,4677.0,2466.0,1805.0,515.0,2053.0,9575.0,2721.0,10857.0,132.0,2019_03_22,
EventRootCode,17450.0,8760.0,7331.0,29562.0,10254.0,2281.0,3718.0,4396.0,2493.0,1465.0,7949.0,2913.0,1552.0,1445.0,323.0,1327.0,6121.0,1856.0,8108.0,78.0,2019_03_23,
EventRootCode,14925.0,7199.0,6384.0,26476.0,8774.0,2172.0,3313.0,3725.0,2335.0,1371.0,6999.0,2515.0,1378.0,1307.0,298.0,919.0,4850.0,1580.0,6811.0,55.0,2019_03_24,
EventRootCode,24488.0,12332.0,12622.0,43887.0,14752.0,4371.0,6326.0,6850.0,4073.0,2300.0,11778.0,4361.0,2361.0,1830.0,688.0,1584.0,8716.0,2841.0,11664.0,138.0,2019_03_25,
EventRootCode,27355.0,14491.0,13811.0,47739.0,16730.0,4551.0,6772.0,7638.0,4137.0,2684.0,14173.0,5415.0,2546.0,1965.0,575.0,1682.0,9673.0,2958.0,11140.0,93.0,2019_03_26,
EventRootCode,28418.0,15009.0,14113.0,47926.0,16018.0,4698.0,7238.0,7167.0,4114.0,2519.0,13956.0,5356.0,2559.0,1949.0,502.0,1626.0,9639.0,2984.0,11578.0,60.0,2019_03_27,
EventRootCode,27156.0,13955.0,13125.0,45838.0,15461.0,4565.0,7378.0,7477.0,4204.0,2545.0,12943.0,5152.0,2473.0,1780.0,428.0,1728.0,9734.0,2902.0,10594.0,96.0,2019_03_28,
EventRootCode,26571.0,14094.0,13268.0,47477.0,14892.0,4342.0,6897.0,7177.0,3820.0,2362.0,12550.0,5101.0,2571.0,1947.0,442.0,1763.0,9656.0,2450.0,10023.0,64.0,2019_03_29,
EventRootCode,16157.0,8298.0,7425.0,28408.0,9225.0,2457.0,3880.0,4333.0,2274.0,1515.0,7622.0,2968.0,1707.0,1421.0,297.0,1392.0,5898.0,1715.0,7062.0,62.0,2019_03_30,
EventRootCode,14343.0,7363.0,6333.0,25595.0,8595.0,2161.0,3320.0,3448.0,1820.0,1272.0,7083.0,2591.0,1423.0,1287.0,238.0,1285.0,4851.0,1530.0,6437.0,40.0,2019_03_31,
EventRootCode,22716.0,11852.0,11603.0,40224.0,12919.0,4076.0,6025.0,5881.0,3275.0,2108.0,10878.0,4130.0,2195.0,1749.0,492.0,1730.0,7576.0,2503.0,9500.0,63.0,2019_04_01,
EventRootCode,25622.0,13048.0,12815.0,43117.0,14290.0,4399.0,6950.0,6689.0,3860.0,2243.0,12285.0,4623.0,2721.0,1708.0,516.0,1840.0,9073.0,2725.0,10195.0,76.0,2019_04_02,
EventRootCode,27245.0,13723.0,13986.0,45770.0,15286.0,4471.0,6881.0,7146.0,3966.0,2385.0,12548.0,4893.0,2682.0,1770.0,430.0,1782.0,9611.0,3064.0,10336.0,61.0,2019_04_03,
EventRootCode,27860.0,14191.0,14126.0,46305.0,15545.0,4522.0,6595.0,7024.0,4190.0,2451.0,12331.0,4975.0,2883.0,1583.0,423.0,1659.0,9535.0,3092.0,10089.0,65.0,2019_04_04,
EventRootCode,24539.0,12719.0,11874.0,41849.0,13500.0,3963.0,5736.0,6771.0,3520.0,2265.0,11310.0,4612.0,2741.0,1602.0,400.0,1505.0,9234.0,2619.0,9399.0,64.0,2019_04_05,
EventRootCode,16930.0,8538.0,7666.0,30357.0,9101.0,2539.0,3851.0,4430.0,2238.0,1498.0,7827.0,3042.0,2017.0,1193.0,290.0,1202.0,6320.0,1907.0,7186.0,58.0,2019_04_06,
EventRootCode,14652.0,7518.0,6581.0,25576.0,8156.0,2114.0,3426.0,3752.0,1905.0,1215.0,6936.0,2469.0,1794.0,1231.0,315.0,1153.0,4689.0,1655.0,6437.0,47.0,2019_04_07,
EventRootCode,23137.0,12129.0,12462.0,42559.0,14038.0,3928.0,5867.0,6410.0,3331.0,2219.0,11166.0,4347.0,2708.0,1600.0,498.0,1657.0,8220.0,2489.0,9237.0,68.0,2019_04_08,
EventRootCode,26095.0,14208.0,13052.0,46300.0,14772.0,4160.0,6434.0,6691.0,3917.0,2444.0,12864.0,4816.0,2762.0,1518.0,389.0,1777.0,9348.0,2831.0,10763.0,110.0,2019_04_09,
EventRootCode,27374.0,14271.0,13310.0,47051.0,15688.0,4448.0,7095.0,6871.0,3952.0,2509.0,12413.0,5132.0,2674.0,1589.0,582.0,1925.0,9570.0,2708.0,9769.0,138.0,2019_04_10,
EventRootCode,28336.0,14753.0,14147.0,47943.0,16025.0,4758.0,7122.0,7986.0,3938.0,2638.0,13736.0,5698.0,2897.0,1844.0,565.0,1946.0,13123.0,3300.0,10001.0,87.0,2019_04_11,
EventRootCode,26594.0,13781.0,12808.0,44362.0,14831.0,4451.0,6443.0,7263.0,3979.0,2418.0,12728.0,5185.0,2710.0,1799.0,401.0,1662.0,11772.0,3168.0,9606.0,86.0,2019_04_12,
EventRootCode,16279.0,8197.0,6886.0,27582.0,8942.0,2429.0,3723.0,4302.0,2112.0,1442.0,8068.0,2971.0,1908.0,1221.0,254.0,968.0,6391.0,2121.0,6837.0,105.0,2019_04_13,
EventRootCode,13921.0,7308.0,6293.0,24651.0,8322.0,2013.0,3234.0,3408.0,1766.0,1285.0,6708.0,2466.0,1446.0,910.0,253.0,902.0,4733.0,1674.0,6277.0,80.0,2019_04_14,
EventRootCode,22655.0,11963.0,11112.0,40183.0,13409.0,4228.0,5554.0,5894.0,3117.0,1990.0,10615.0,3888.0,2141.0,1575.0,495.0,1366.0,7712.0,2554.0,8747.0,49.0,2019_04_15,
EventRootCode,25483.0,12578.0,12837.0,43671.0,14695.0,4331.0,6377.0,6201.0,3360.0,2217.0,11857.0,4426.0,2639.0,1698.0,420.0,1637.0,8772.0,2493.0,9835.0,67.0,2019_04_16,
EventRootCode,26997.0,13699.0,13499.0,46380.0,15508.0,4172.0,6911.0,6868.0,4114.0,2310.0,12906.0,5253.0,2807.0,1614.0,577.0,1752.0,9608.0,2725.0,10714.0,79.0,2019_04_17,
EventRootCode,26432.0,13505.0,12600.0,46205.0,14766.0,4391.0,6439.0,6861.0,4223.0,2328.0,12267.0,4930.0,2520.0,1430.0,497.0,1752.0,9768.0,2774.0,10016.0,55.0,2019_04_18,
EventRootCode,21566.0,10927.0,9988.0,37008.0,12010.0,3754.0,4898.0,5310.0,3450.0,1932.0,10072.0,3981.0,1963.0,1267.0,387.0,1266.0,7991.0,2326.0,9047.0,51.0,2019_04_19,
EventRootCode,14510.0,7421.0,6510.0,24518.0,8002.0,2074.0,3200.0,3677.0,2265.0,1235.0,7122.0,2594.0,1296.0,977.0,257.0,766.0,5751.0,1625.0,6906.0,20.0,2019_04_20,
EventRootCode,14209.0,6844.0,5757.0,22493.0,7401.0,1921.0,2716.0,3056.0,1866.0,1061.0,7530.0,2180.0,1394.0,807.0,269.0,640.0,4497.0,1531.0,7396.0,47.0,2019_04_21,
EventRootCode,20794.0,9911.0,10032.0,33135.0,12211.0,3818.0,4747.0,4948.0,2894.0,1703.0,10214.0,3508.0,2470.0,1136.0,433.0,1456.0,6756.0,2444.0,10079.0,55.0,2019_04_22,
EventRootCode,24655.0,12312.0,12648.0,42029.0,13906.0,4657.0,5810.0,6045.0,3645.0,2119.0,12369.0,4420.0,2811.0,1520.0,588.0,1711.0,8638.0,2819.0,11003.0,90.0,2019_04_23,
EventRootCode,27305.0,14100.0,14244.0,46581.0,15833.0,4887.0,6617.0,6490.0,4035.0,2341.0,12494.0,4861.0,2832.0,1548.0,485.0,1657.0,10240.0,2972.0,10750.0,101.0,2019_04_24,
EventRootCode,27019.0,13846.0,14276.0,47929.0,15917.0,4829.0,6732.0,6383.0,4022.0,2335.0,12504.0,4869.0,2793.0,1499.0,454.0,1718.0,9671.0,2900.0,10813.0,83.0,2019_04_25,
EventRootCode,24751.0,12354.0,12414.0,43555.0,15595.0,4067.0,5991.0,6169.0,3725.0,2031.0,11326.0,4294.0,2578.0,1340.0,372.0,1878.0,9027.0,2913.0,9608.0,58.0,2019_04_26,
EventRootCode,15286.0,7678.0,6733.0,27191.0,9144.0,2490.0,3312.0,3915.0,2185.0,1284.0,6885.0,2737.0,1512.0,918.0,294.0,1097.0,5593.0,1827.0,7316.0,44.0,2019_04_27,
EventRootCode,13762.0,6786.0,6046.0,24916.0,8266.0,2106.0,2994.0,3415.0,2055.0,1091.0,6627.0,2427.0,1334.0,948.0,318.0,890.0,4469.0,1638.0,8023.0,56.0,2019_04_28,
EventRootCode,22551.0,11546.0,10898.0,40690.0,13774.0,3831.0,5364.0,5677.0,3403.0,1873.0,10601.0,4029.0,2331.0,1319.0,557.0,1445.0,7932.0,2586.0,11242.0,49.0,2019_04_29,
EventRootCode,25413.0,13529.0,12302.0,42421.0,15796.0,4270.0,6398.0,6643.0,3920.0,2342.0,11834.0,4578.0,2754.0,1723.0,535.0,1600.0,9310.0,2876.0,10981.0,33.0,2019_04_30,
EventRootCode,26430.0,14376.0,12876.0,42916.0,15733.0,4126.0,6305.0,6984.0,3890.0,2437.0,12269.0,5296.0,2919.0,2339.0,508.0,1924.0,10298.0,2898.0,11698.0,56.0,2019_05_01,
EventRootCode,27533.0,14283.0,13391.0,44795.0,15411.0,4444.0,6674.0,6902.0,4102.0,2431.0,12436.0,5241.0,2795.0,1956.0,560.0,1778.0,10060.0,3078.0,11512.0,50.0,2019_05_02,
EventRootCode,24320.0,12772.0,11945.0,42398.0,14125.0,3899.0,5872.0,6720.0,3619.0,2082.0,11394.0,4707.0,2439.0,1637.0,542.0,1634.0,9934.0,2674.0,10430.0,45.0,2019_05_03,
EventRootCode,15277.0,7754.0,6830.0,27568.0,8853.0,2338.0,3480.0,4188.0,2207.0,1327.0,7043.0,2501.0,1630.0,959.0,335.0,965.0,5490.0,1797.0,7807.0,41.0,2019_05_04,
EventRootCode,13805.0,7254.0,6443.0,25201.0,8249.0,2067.0,3222.0,3529.0,1852.0,1224.0,6965.0,2240.0,1630.0,870.0,316.0,749.0,4346.0,1642.0,8680.0,50.0,2019_05_05,
EventRootCode,21355.0,10861.0,10891.0,38439.0,13440.0,3653.0,5227.0,5371.0,3071.0,2069.0,9776.0,3773.0,2570.0,1187.0,538.0,1170.0,6943.0,2412.0,10301.0,51.0,2019_05_06,
EventRootCode,25546.0,12660.0,13390.0,44812.0,14917.0,4280.0,6217.0,7190.0,3711.0,2075.0,11278.0,4704.0,2824.0,1403.0,489.0,1524.0,9256.0,2776.0,10951.0,69.0,2019_05_07,
EventRootCode,26984.0,13198.0,13648.0,45267.0,16662.0,4333.0,6671.0,7358.0,3533.0,2271.0,12056.0,5006.0,3000.0,1495.0,476.0,1745.0,9134.0,2815.0,10951.0,50.0,2019_05_08,
EventRootCode,25778.0,13346.0,13263.0,44872.0,16449.0,4438.0,6462.0,6767.0,3563.0,2218.0,12239.0,5105.0,2671.0,1442.0,534.0,1822.0,9021.0,2528.0,10474.0,36.0,2019_05_09,
EventRootCode,25032.0,12778.0,12012.0,42126.0,14690.0,4594.0,6512.0,6707.0,3439.0,2158.0,11484.0,4838.0,2681.0,1534.0,591.0,1609.0,9252.0,2519.0,10216.0,32.0,2019_05_10,
EventRootCode,15206.0,7609.0,6599.0,25285.0,8565.0,2441.0,3679.0,3976.0,2390.0,1375.0,6902.0,2661.0,1668.0,939.0,397.0,1097.0,5493.0,1670.0,6897.0,24.0,2019_05_11,
EventRootCode,13748.0,6811.0,6083.0,22590.0,7708.0,2045.0,3218.0,3505.0,1892.0,1176.0,6270.0,2247.0,1667.0,763.0,407.0,785.0,4659.0,1546.0,6626.0,19.0,2019_05_12,1.0
EventRootCode,22716.0,11600.0,11665.0,39593.0,13388.0,4133.0,5518.0,5735.0,3517.0,1938.0,10789.0,4052.0,2915.0,1382.0,597.0,1441.0,8590.0,2605.0,9839.0,54.0,2019_05_13,
EventRootCode,26191.0,13760.0,13236.0,46520.0,15352.0,4486.0,6129.0,6782.0,4286.0,2327.0,12738.0,4952.0,3147.0,1431.0,712.0,1530.0,9232.0,2943.0,11123.0,40.0,2019_05_14,
EventRootCode,27142.0,13697.0,13686.0,45944.0,15791.0,4587.0,6384.0,6744.0,3975.0,2535.0,12479.0,4889.0,3251.0,1503.0,622.0,1719.0,9746.0,2939.0,10178.0,59.0,2019_05_15,
EventRootCode,26350.0,13315.0,12891.0,43339.0,15342.0,4332.0,6612.0,7005.0,3918.0,2449.0,12568.0,4762.0,3302.0,1548.0,661.0,1995.0,11048.0,2990.0,10881.0,46.0,2019_05_16,
EventRootCode,25048.0,12447.0,11342.0,42263.0,14757.0,4287.0,5831.0,6608.0,3575.0,2073.0,11070.0,4395.0,2881.0,1439.0,593.0,1748.0,9716.0,2730.0,10247.0,57.0,2019_05_17,
EventRootCode,15398.0,7569.0,6975.0,25485.0,9031.0,2364.0,3449.0,4112.0,2000.0,1330.0,6790.0,2654.0,1793.0,965.0,344.0,1052.0,5364.0,1533.0,6738.0,65.0,2019_05_18,
EventRootCode,13575.0,7100.0,5635.0,22900.0,7717.0,2160.0,2978.0,3329.0,1652.0,1081.0,6163.0,2509.0,1687.0,888.0,356.0,1035.0,4147.0,1485.0,5987.0,35.0,2019_05_19,
EventRootCode,22009.0,11761.0,10924.0,37423.0,12489.0,3725.0,5227.0,5789.0,2996.0,1971.0,10097.0,4304.0,3104.0,1287.0,526.0,1707.0,7573.0,2484.0,9390.0,43.0,2019_05_20,
EventRootCode,25027.0,12833.0,12372.0,42443.0,14036.0,4049.0,5919.0,6601.0,3496.0,2361.0,11776.0,4715.0,3169.0,1533.0,617.0,1782.0,8958.0,2820.0,10156.0,32.0,2019_05_21,
EventRootCode,26189.0,13289.0,13427.0,44288.0,15116.0,4373.0,6420.0,7122.0,3599.0,2504.0,12269.0,5159.0,3104.0,1603.0,682.0,1778.0,9901.0,2950.0,10874.0,45.0,2019_05_22,
EventRootCode,26645.0,13491.0,12952.0,43773.0,16179.0,4621.0,6524.0,7977.0,3799.0,2268.0,12309.0,4965.0,2767.0,1422.0,672.0,1663.0,10012.0,2938.0,10635.0,44.0,2019_05_23,
EventRootCode,24713.0,12284.0,12727.0,42395.0,15327.0,4396.0,6141.0,7340.0,3454.0,1948.0,11292.0,4425.0,2663.0,1343.0,584.0,1648.0,9768.0,2705.0,9718.0,49.0,2019_05_24,
EventRootCode,14423.0,7249.0,7217.0,25736.0,9250.0,2247.0,3844.0,4093.0,2178.0,1218.0,6608.0,2548.0,1520.0,929.0,535.0,920.0,5513.0,1599.0,6282.0,36.0,2019_05_25,
EventRootCode,13898.0,6823.0,6434.0,23905.0,8633.0,2286.0,3177.0,3814.0,1843.0,1078.0,5672.0,2399.0,1649.0,895.0,438.0,872.0,4641.0,1465.0,6330.0,24.0,2019_05_26,
EventRootCode,18310.0,8885.0,9665.0,33672.0,12135.0,3273.0,4148.0,4821.0,2412.0,1541.0,7708.0,3302.0,2028.0,1027.0,502.0,1201.0,5815.0,1790.0,8416.0,21.0,2019_05_27,
EventRootCode,23471.0,11824.0,12159.0,42791.0,14587.0,4009.0,5622.0,6149.0,3286.0,2053.0,10049.0,4366.0,2487.0,1207.0,612.0,1411.0,7987.0,2568.0,9545.0,42.0,2019_05_28,
EventRootCode,24859.0,13009.0,13332.0,44666.0,14312.0,4187.0,6172.0,6990.0,4049.0,2306.0,11491.0,4905.0,2693.0,1358.0,536.0,1535.0,9003.0,2631.0,9797.0,44.0,2019_05_29,
EventRootCode,25974.0,13296.0,13527.0,47079.0,14526.0,4880.0,6517.0,7046.0,3802.0,2330.0,11177.0,5287.0,2512.0,1297.0,547.0,1567.0,9168.0,2506.0,9464.0,39.0,2019_05_30,
EventRootCode,23878.0,12642.0,11920.0,43339.0,14459.0,4385.0,5664.0,6447.0,3596.0,2205.0,11077.0,4855.0,2644.0,1378.0,502.0,1543.0,9093.0,2869.0,9394.0,53.0,2019_05_31,
EventRootCode,15276.0,7573.0,7712.0,27583.0,9118.0,2717.0,3514.0,3999.0,2468.0,1376.0,6867.0,2921.0,1925.0,1001.0,292.0,1046.0,5705.0,1642.0,7105.0,19.0,2019_06_01,
EventRootCode,13171.0,6729.0,6770.0,25336.0,7954.0,2211.0,3146.0,3427.0,1998.0,1224.0,5851.0,2454.0,1535.0,861.0,364.0,840.0,4439.0,1363.0,6639.0,29.0,2019_06_02,
EventRootCode,21577.0,11321.0,12015.0,41343.0,12822.0,4103.0,5078.0,5959.0,3226.0,1989.0,9920.0,4207.0,2354.0,1340.0,487.0,1452.0,7627.0,2336.0,9220.0,65.0,2019_06_03,
EventRootCode,24279.0,12803.0,12680.0,44924.0,14825.0,4427.0,5927.0,6372.0,3765.0,2060.0,11433.0,5037.0,2726.0,1751.0,613.0,1623.0,8756.0,2463.0,9843.0,89.0,2019_06_04,
EventRootCode,26396.0,12618.0,13050.0,47093.0,15454.0,4474.0,6050.0,6553.0,3763.0,2169.0,11252.0,4791.0,2592.0,1510.0,554.0,1445.0,8976.0,2990.0,10782.0,80.0,2019_06_05,
EventRootCode,26660.0,11998.0,13013.0,48551.0,15480.0,4568.0,6351.0,6462.0,3716.0,2170.0,10706.0,4701.0,2451.0,1335.0,611.0,1431.0,9006.0,2687.0,11471.0,69.0,2019_06_06,
EventRootCode,23294.0,11044.0,11671.0,41617.0,13929.0,4218.0,5437.0,6156.0,3376.0,1895.0,10531.0,4350.0,2279.0,1185.0,527.0,1413.0,8527.0,2574.0,9805.0,37.0,2019_06_07,
EventRootCode,14628.0,6757.0,7560.0,27136.0,8556.0,2292.0,3220.0,3375.0,2127.0,1056.0,6226.0,2568.0,1517.0,700.0,352.0,961.0,5441.0,1544.0,6106.0,25.0,2019_06_08,
EventRootCode,12689.0,6353.0,6072.0,24666.0,7698.0,1932.0,2968.0,3201.0,1745.0,1022.0,5577.0,2313.0,1252.0,1242.0,355.0,838.0,4233.0,1339.0,5644.0,27.0,2019_06_09,
EventRootCode,20957.0,10642.0,10754.0,37213.0,12449.0,3829.0,5011.0,5860.0,3212.0,1968.0,9431.0,4058.0,2343.0,1628.0,536.0,1243.0,7776.0,2265.0,8562.0,64.0,2019_06_10,
EventRootCode,23728.0,12214.0,13361.0,41748.0,13484.0,4179.0,6172.0,6804.0,3685.0,2148.0,10644.0,4720.0,2417.0,1586.0,532.0,1383.0,9365.0,2652.0,9004.0,59.0,2019_06_11,
EventRootCode,25741.0,13430.0,14155.0,47060.0,15226.0,4435.0,6713.0,7028.0,3841.0,2268.0,11760.0,4957.0,2601.0,1788.0,604.0,1624.0,9503.0,2899.0,9841.0,76.0,2019_06_12,
EventRootCode,26256.0,13655.0,13637.0,47832.0,14664.0,4546.0,6697.0,6791.0,3765.0,2356.0,12422.0,4810.0,2774.0,1739.0,612.0,1558.0,9452.0,2936.0,11470.0,51.0,2019_06_13,
EventRootCode,23932.0,12983.0,12555.0,44387.0,13931.0,4164.0,6143.0,6301.0,3323.0,2119.0,11914.0,4476.0,2633.0,1874.0,475.0,1222.0,8746.0,2725.0,9801.0,36.0,2019_06_14,1.0
EventRootCode,14392.0,7922.0,7445.0,27218.0,8115.0,2292.0,3384.0,3891.0,2031.0,1320.0,7343.0,2859.0,1597.0,1274.0,351.0,906.0,5026.0,1565.0,6617.0,27.0,2019_06_15,
EventRootCode,12926.0,6558.0,6076.0,24694.0,7229.0,1981.0,2782.0,3219.0,1673.0,1130.0,6663.0,2298.0,1449.0,1049.0,274.0,677.0,4332.0,1365.0,6027.0,21.0,2019_06_16,
EventRootCode,20901.0,11082.0,10707.0,36744.0,12761.0,3639.0,5118.0,5359.0,3065.0,1944.0,10188.0,4073.0,2375.0,1719.0,441.0,1333.0,7741.0,2255.0,8814.0,29.0,2019_06_17,
EventRootCode,25121.0,12813.0,12681.0,43523.0,14690.0,4266.0,5914.0,6143.0,3740.0,2134.0,11847.0,4926.0,2826.0,1518.0,689.0,1595.0,8754.0,2623.0,10013.0,79.0,2019_06_18,
EventRootCode,26457.0,14455.0,14886.0,48930.0,16200.0,4670.0,6798.0,6080.0,4462.0,2373.0,12484.0,4865.0,2789.0,1648.0,566.0,1557.0,9021.0,2996.0,11361.0,52.0,2019_06_19,1.0
EventRootCode,26247.0,13607.0,13157.0,47195.0,15015.0,4505.0,6535.0,6138.0,4161.0,2466.0,12774.0,4898.0,2892.0,1705.0,663.0,1670.0,9184.0,2692.0,11945.0,52.0,2019_06_20,
EventRootCode,24250.0,12475.0,11957.0,42179.0,14470.0,4074.0,5715.0,6413.0,3551.0,2284.0,11136.0,4639.0,2974.0,1842.0,681.0,1922.0,8710.0,2556.0,11405.0,42.0,2019_06_21,
EventRootCode,15640.0,7606.0,7371.0,26975.0,8875.0,2457.0,3402.0,3793.0,2257.0,1429.0,6908.0,2908.0,1954.0,1250.0,341.0,1357.0,5582.0,1814.0,7620.0,33.0,2019_06_22,
EventRootCode,13913.0,7026.0,6272.0,24474.0,7377.0,1860.0,2860.0,3285.0,1908.0,1351.0,6178.0,2614.0,1806.0,1085.0,309.0,1033.0,4326.0,1414.0,6906.0,25.0,2019_06_23,
EventRootCode,22103.0,11473.0,11199.0,40227.0,12322.0,3731.0,5616.0,5447.0,3128.0,2220.0,10277.0,4300.0,2668.0,1802.0,490.0,1620.0,7762.0,2352.0,10337.0,30.0,2019_06_24,
EventRootCode,25068.0,12965.0,13790.0,45283.0,14177.0,4268.0,6341.0,6899.0,3377.0,2320.0,11535.0,4878.0,2954.0,1766.0,634.0,2064.0,9126.0,2813.0,9926.0,34.0,2019_06_25,
EventRootCode,26334.0,13731.0,14652.0,46905.0,15557.0,4798.0,6723.0,6662.0,3665.0,2272.0,11980.0,5191.0,2835.0,1608.0,535.0,1903.0,9330.0,3021.0,10177.0,28.0,2019_06_26,
EventRootCode,26202.0,13801.0,15051.0,50099.0,14772.0,4285.0,6148.0,6263.0,3841.0,2228.0,12076.0,4995.0,2902.0,1572.0,526.0,1595.0,9287.0,2804.0,10702.0,51.0,2019_06_27,
EventRootCode,25537.0,13148.0,13543.0,50342.0,15082.0,4350.0,5886.0,6330.0,3835.0,2211.0,12379.0,4980.0,2720.0,1493.0,488.0,1739.0,9082.0,2549.0,10651.0,30.0,2019_06_28,
EventRootCode,15031.0,7751.0,8583.0,31521.0,8555.0,2417.0,3628.0,3616.0,2114.0,1212.0,6867.0,2863.0,1509.0,978.0,374.0,1153.0,5419.0,1605.0,6347.0,25.0,2019_06_29,
EventRootCode,13215.0,6875.0,7542.0,27784.0,8368.0,1996.0,3060.0,3493.0,1787.0,1205.0,5755.0,2347.0,1337.0,1125.0,339.0,1126.0,4405.0,1436.0,6243.0,17.0,2019_06_30,
EventRootCode,21979.0,10717.0,11401.0,41987.0,13487.0,3748.0,5483.0,5690.0,2993.0,2023.0,9802.0,4208.0,2223.0,1717.0,450.0,1569.0,7320.0,2373.0,9543.0,38.0,2019_07_01,
EventRootCode,24094.0,12177.0,11693.0,42781.0,13620.0,4189.0,5597.0,6364.0,3390.0,2288.0,11360.0,4394.0,2254.0,1705.0,518.0,1442.0,8694.0,2795.0,9908.0,31.0,2019_07_02,
EventRootCode,24402.0,12494.0,11654.0,41654.0,14332.0,4158.0,5794.0,6588.0,3719.0,2383.0,12039.0,4653.0,2316.0,1877.0,478.0,1490.0,8657.0,3017.0,9865.0,22.0,2019_07_03,
EventRootCode,20695.0,10058.0,9635.0,35766.0,12769.0,3772.0,4853.0,5682.0,2843.0,2004.0,9667.0,3856.0,2203.0,1484.0,414.0,1420.0,7374.0,2319.0,8059.0,56.0,2019_07_04,
EventRootCode,20131.0,9605.0,9071.0,35487.0,12389.0,3335.0,4928.0,5377.0,2810.0,1837.0,8694.0,3704.0,1998.0,1359.0,408.0,1222.0,7027.0,2322.0,7603.0,30.0,2019_07_05,
EventRootCode,12786.0,6588.0,5992.0,24261.0,7815.0,1898.0,3057.0,3591.0,2022.0,1139.0,6036.0,2315.0,1430.0,778.0,237.0,738.0,4659.0,1550.0,5271.0,15.0,2019_07_06,
EventRootCode,12585.0,6176.0,5971.0,23101.0,7968.0,2078.0,2936.0,3084.0,1761.0,1109.0,5209.0,2400.0,1357.0,753.0,294.0,870.0,4175.0,1428.0,5025.0,27.0,2019_07_07,
EventRootCode,21947.0,10850.0,11228.0,38406.0,12392.0,3624.0,5070.0,5363.0,3323.0,1775.0,9504.0,4469.0,2222.0,1326.0,440.0,1344.0,7513.0,2191.0,8047.0,83.0,2019_07_08,
EventRootCode,24295.0,12507.0,12726.0,43083.0,13724.0,4167.0,6024.0,6146.0,3671.0,2144.0,11242.0,4852.0,2395.0,1518.0,413.0,1487.0,8641.0,2498.0,8981.0,60.0,2019_07_09,
EventRootCode,24749.0,13334.0,12765.0,43194.0,14380.0,4436.0,5964.0,6773.0,3589.0,2244.0,11942.0,5139.0,2615.0,1381.0,508.0,1586.0,9078.0,2836.0,9072.0,47.0,2019_07_10,
EventRootCode,24902.0,13319.0,12496.0,42688.0,13774.0,4116.0,5975.0,6836.0,3931.0,2237.0,11928.0,4592.0,2767.0,1493.0,433.0,1688.0,8902.0,2654.0,9554.0,44.0,2019_07_11,
EventRootCode,23392.0,11553.0,11490.0,40640.0,12739.0,4155.0,5555.0,6450.0,3435.0,2109.0,10690.0,4519.0,2556.0,1381.0,553.0,1490.0,8653.0,2282.0,8698.0,45.0,2019_07_12,
EventRootCode,14980.0,7202.0,6409.0,26050.0,7982.0,2482.0,3513.0,3851.0,2152.0,1338.0,6847.0,2880.0,1820.0,1153.0,280.0,1013.0,5620.0,1722.0,7340.0,31.0,2019_07_13,
EventRootCode,12664.0,6254.0,5765.0,22524.0,6991.0,2084.0,2895.0,3574.0,1744.0,1155.0,5674.0,2335.0,1488.0,969.0,248.0,856.0,4549.0,1351.0,5681.0,20.0,2019_07_14,
EventRootCode,20002.0,10966.0,9989.0,35950.0,12014.0,3615.0,5044.0,5574.0,3083.0,1925.0,10447.0,3811.0,2199.0,1505.0,437.0,1392.0,7273.0,2125.0,8088.0,34.0,2019_07_15,
EventRootCode,24133.0,12970.0,11792.0,40934.0,12815.0,4019.0,5841.0,6205.0,3650.0,2309.0,12666.0,4650.0,2515.0,1486.0,520.0,1656.0,8929.0,2620.0,9039.0,62.0,2019_07_16,
EventRootCode,25721.0,13287.0,11678.0,41958.0,13889.0,4312.0,6046.0,6763.0,3944.0,2263.0,12920.0,4905.0,2646.0,1594.0,481.0,1589.0,11133.0,2886.0,10117.0,85.0,2019_07_17,
EventRootCode,25386.0,13008.0,11705.0,41386.0,13976.0,4282.0,5890.0,6471.0,3526.0,2328.0,12660.0,5035.0,2471.0,1463.0,589.0,1668.0,9676.0,3068.0,9442.0,94.0,2019_07_18,
EventRootCode,23915.0,11999.0,10765.0,39282.0,12588.0,3912.0,5749.0,6278.0,3326.0,2090.0,11812.0,4649.0,2297.0,1493.0,482.0,1472.0,9200.0,2899.0,9193.0,69.0,2019_07_19,
EventRootCode,15928.0,7586.0,6726.0,26334.0,7654.0,2281.0,3311.0,4103.0,2096.0,1335.0,7679.0,3007.0,1700.0,871.0,448.0,1133.0,5392.0,1644.0,6131.0,23.0,2019_07_20,
EventRootCode,13678.0,6798.0,6589.0,23831.0,7435.0,2029.0,2890.0,3617.0,1816.0,1205.0,6335.0,2435.0,1683.0,941.0,385.0,1281.0,4112.0,1490.0,5711.0,23.0,2019_07_21,
EventRootCode,21935.0,11062.0,10241.0,37124.0,11904.0,3690.0,5263.0,5775.0,3643.0,2014.0,10412.0,4127.0,2386.0,1546.0,582.0,1632.0,7401.0,2312.0,9308.0,52.0,2019_07_22,
EventRootCode,25233.0,12944.0,12331.0,41689.0,13651.0,4020.0,5715.0,6603.0,3807.0,2224.0,12346.0,4935.0,2793.0,1606.0,726.0,1729.0,8804.0,2553.0,10087.0,50.0,2019_07_23,
EventRootCode,26293.0,13501.0,12348.0,43864.0,14337.0,4584.0,5945.0,7160.0,4121.0,2418.0,11928.0,5179.0,2757.0,1559.0,693.0,1689.0,9424.0,2467.0,9496.0,52.0,2019_07_24,
EventRootCode,25512.0,12967.0,11823.0,42031.0,13376.0,4370.0,5999.0,6777.0,3884.0,2322.0,11721.0,5103.0,2624.0,1607.0,622.0,1525.0,9530.0,2746.0,9798.0,50.0,2019_07_25,
EventRootCode,22290.0,11284.0,10587.0,35802.0,11862.0,3971.0,5419.0,5819.0,3224.0,1832.0,9471.0,4025.0,2244.0,1153.0,538.0,1263.0,7732.0,2357.0,8435.0,56.0,2019_07_26,
EventRootCode,14029.0,7253.0,6557.0,24445.0,7499.0,2282.0,3625.0,3542.0,2264.0,1191.0,6578.0,2435.0,1325.0,921.0,384.0,800.0,5230.0,1609.0,6453.0,30.0,2019_07_27,
EventRootCode,12776.0,6293.0,6125.0,24208.0,6882.0,2022.0,3045.0,3566.0,1919.0,1065.0,6534.0,2350.0,1376.0,932.0,405.0,833.0,4483.0,1541.0,6193.0,36.0,2019_07_28,
EventRootCode,21268.0,10465.0,10915.0,37744.0,11608.0,3640.0,4981.0,5671.0,3352.0,1850.0,10485.0,4020.0,2188.0,1429.0,558.0,1171.0,7269.0,2619.0,10121.0,61.0,2019_07_29,
EventRootCode,23867.0,11981.0,11539.0,40037.0,13284.0,4269.0,5434.0,5910.0,3926.0,1931.0,11175.0,4641.0,2178.0,1493.0,542.0,1419.0,7883.0,3021.0,10669.0,54.0,2019_07_30,
EventRootCode,24732.0,12463.0,12897.0,43199.0,13622.0,4245.0,5505.0,6391.0,3820.0,2115.0,11369.0,4751.0,2419.0,1513.0,597.0,1927.0,8449.0,2618.0,10200.0,38.0,2019_07_31,
EventRootCode,24212.0,12348.0,12041.0,42990.0,13205.0,4071.0,5678.0,6352.0,3734.0,2050.0,11669.0,4535.0,2456.0,1503.0,619.0,1845.0,8455.0,2864.0,10653.0,29.0,2019_08_01,
EventRootCode,23585.0,12199.0,11062.0,40199.0,12962.0,3915.0,5352.0,6185.0,3500.0,1963.0,11094.0,4346.0,2367.0,1490.0,661.0,1687.0,8497.0,2892.0,9848.0,44.0,2019_08_02,
EventRootCode,14041.0,7491.0,6333.0,24616.0,7037.0,2211.0,3067.0,3764.0,2108.0,1192.0,6463.0,2582.0,1502.0,1017.0,362.0,1051.0,5075.0,1659.0,6833.0,23.0,2019_08_03,
EventRootCode,13270.0,6723.0,6119.0,22423.0,6610.0,2024.0,3075.0,3081.0,1969.0,1066.0,6035.0,2267.0,1282.0,1074.0,385.0,882.0,4554.0,1667.0,9268.0,67.0,2019_08_04,
EventRootCode,20650.0,10658.0,9666.0,35134.0,11074.0,3559.0,4873.0,5010.0,2830.0,1926.0,10031.0,3806.0,2268.0,1626.0,678.0,1327.0,7239.0,2462.0,12565.0,132.0,2019_08_05,
EventRootCode,24005.0,12382.0,11149.0,39836.0,12592.0,3987.0,5348.0,5837.0,3420.0,2308.0,11862.0,4651.0,2933.0,1741.0,714.0,1689.0,8231.0,2581.0,13097.0,171.0,2019_08_06,
EventRootCode,24821.0,12332.0,11213.0,41801.0,13257.0,4137.0,5766.0,6207.0,3474.0,2223.0,11892.0,4592.0,2946.0,1778.0,580.0,1873.0,8239.0,2764.0,12338.0,111.0,2019_08_07,
EventRootCode,23891.0,12115.0,11131.0,40048.0,13180.0,4156.0,5690.0,6097.0,3536.0,2105.0,11212.0,4376.0,2570.0,1699.0,587.0,1630.0,8313.0,2722.0,11608.0,114.0,2019_08_08,
EventRootCode,23045.0,11587.0,10865.0,38947.0,12471.0,3967.0,5768.0,6192.0,3288.0,1971.0,10123.0,4232.0,2345.0,1621.0,588.0,1511.0,8287.0,2407.0,10976.0,85.0,2019_08_09,
EventRootCode,14426.0,7400.0,6309.0,24412.0,7114.0,2215.0,3617.0,3595.0,2206.0,1271.0,6760.0,2547.0,1598.0,1138.0,474.0,897.0,5153.0,1620.0,7577.0,50.0,2019_08_10,
EventRootCode,12141.0,6598.0,5320.0,20521.0,6760.0,1729.0,3024.0,2880.0,1898.0,1104.0,5997.0,2048.0,1300.0,1024.0,394.0,807.0,4035.0,1459.0,6765.0,56.0,2019_08_11,
EventRootCode,19083.0,10189.0,9219.0,32431.0,11162.0,3474.0,4949.0,4695.0,2951.0,1790.0,9010.0,3262.0,1949.0,1402.0,531.0,1413.0,6664.0,2108.0,9120.0,72.0,2019_08_12,
EventRootCode,21503.0,11308.0,10455.0,34606.0,11780.0,3948.0,5475.0,5088.0,3423.0,2097.0,9986.0,3668.0,2470.0,1494.0,538.0,1346.0,7529.0,2323.0,9525.0,66.0,2019_08_13,
EventRootCode,23269.0,12270.0,11085.0,37352.0,12623.0,4214.0,5668.0,5486.0,3746.0,2351.0,10892.0,4194.0,2538.0,1589.0,644.0,1309.0,8419.0,2940.0,9743.0,113.0,2019_08_14,
EventRootCode,23659.0,12120.0,11531.0,38885.0,13495.0,3733.0,5355.0,6361.0,3824.0,2190.0,10616.0,4157.0,2401.0,1567.0,459.0,1426.0,8770.0,2985.0,10328.0,122.0,2019_08_15,
EventRootCode,23101.0,11724.0,11252.0,39155.0,12296.0,3649.0,5141.0,6128.0,3370.0,2009.0,10775.0,4300.0,2424.0,1541.0,568.0,1500.0,8719.0,2693.0,9714.0,110.0,2019_08_16,
EventRootCode,14842.0,7012.0,7372.0,25916.0,7919.0,2250.0,3283.0,3777.0,2055.0,1422.0,6610.0,2622.0,1528.0,1111.0,409.0,938.0,5261.0,1873.0,6808.0,71.0,2019_08_17,
EventRootCode,13700.0,6588.0,6289.0,23904.0,7105.0,1872.0,2619.0,3353.0,1888.0,1316.0,6167.0,2496.0,1476.0,1096.0,265.0,828.0,4544.0,1581.0,6603.0,74.0,2019_08_18,
EventRootCode,21511.0,10927.0,11802.0,39167.0,11963.0,3888.0,4799.0,5462.0,3126.0,1853.0,10141.0,4103.0,2509.0,1622.0,414.0,1311.0,7872.0,2448.0,9361.0,69.0,2019_08_19,
EventRootCode,23736.0,12265.0,12631.0,42158.0,12569.0,3762.0,5518.0,6346.0,3503.0,1960.0,11330.0,4429.0,2666.0,1413.0,483.0,1566.0,9322.0,2859.0,9471.0,57.0,2019_08_20,
EventRootCode,25585.0,13003.0,14420.0,44994.0,13461.0,4217.0,5999.0,6534.0,3610.0,2280.0,11861.0,5050.0,2755.0,1571.0,534.0,2086.0,9509.0,2399.0,10055.0,91.0,2019_08_21,
EventRootCode,24824.0,12418.0,13669.0,43423.0,14146.0,4101.0,5738.0,6637.0,3517.0,2207.0,11932.0,4615.0,2534.0,1742.0,522.0,1723.0,8870.0,2505.0,9834.0,103.0,2019_08_22,
EventRootCode,23422.0,11382.0,12426.0,41906.0,12959.0,3966.0,5527.0,5982.0,3411.0,2052.0,11183.0,4317.0,2463.0,1595.0,545.0,1497.0,8337.0,2505.0,9009.0,96.0,2019_08_23,
EventRootCode,14828.0,7013.0,8158.0,29533.0,7693.0,2256.0,3221.0,3734.0,2098.0,1184.0,6659.0,2493.0,1695.0,1094.0,483.0,975.0,5018.0,1613.0,6777.0,37.0,2019_08_24,
EventRootCode,13954.0,6401.0,6753.0,27419.0,7259.0,2112.0,2869.0,3249.0,1866.0,1109.0,6377.0,2229.0,1669.0,975.0,466.0,828.0,3854.0,1355.0,6975.0,34.0,2019_08_25,
EventRootCode,21299.0,10346.0,11665.0,41269.0,11730.0,3700.0,4718.0,5363.0,2836.0,1608.0,9856.0,3973.0,2424.0,1332.0,532.0,1273.0,6655.0,2214.0,9522.0,77.0,2019_08_26,
EventRootCode,24534.0,11572.0,12881.0,42619.0,13580.0,4047.0,5816.0,5973.0,3469.0,2025.0,11210.0,4770.0,2617.0,1330.0,525.0,1391.0,8636.0,2627.0,9604.0,50.0,2019_08_27,
EventRootCode,25146.0,12850.0,12606.0,43252.0,13965.0,4128.0,6272.0,6523.0,3517.0,2247.0,11940.0,4508.0,2579.0,1529.0,465.0,1321.0,8892.0,2412.0,9894.0,37.0,2019_08_28,
EventRootCode,25153.0,12607.0,12083.0,42798.0,13669.0,4543.0,5877.0,6441.0,3483.0,2179.0,11661.0,4631.0,2716.0,1751.0,629.0,1443.0,8834.0,2542.0,9680.0,51.0,2019_08_29,
EventRootCode,23028.0,11728.0,11849.0,39997.0,12795.0,3959.0,5549.0,6130.0,3335.0,2203.0,10345.0,4103.0,2605.0,1485.0,551.0,1594.0,8398.0,2497.0,9093.0,55.0,2019_08_30,
EventRootCode,14412.0,6906.0,6785.0,24875.0,7575.0,2160.0,3102.0,3585.0,1896.0,1338.0,6265.0,2733.0,1694.0,1437.0,443.0,1034.0,5117.0,1601.0,6538.0,84.0,2019_08_31,
EventRootCode,13046.0,6577.0,5797.0,23640.0,7140.0,1901.0,2821.0,3145.0,1866.0,1203.0,5523.0,2282.0,1584.0,1095.0,270.0,1016.0,4186.0,1635.0,7950.0,48.0,2019_09_01,
EventRootCode,17811.0,8846.0,9145.0,31885.0,9914.0,3061.0,4021.0,4462.0,2692.0,1595.0,7781.0,3003.0,2119.0,1615.0,486.0,1694.0,6041.0,2071.0,8636.0,49.0,2019_09_02,
EventRootCode,22719.0,11358.0,11970.0,40965.0,12499.0,4077.0,5541.0,5391.0,3217.0,1971.0,9891.0,3904.0,2669.0,1828.0,496.0,1866.0,7464.0,2458.0,9881.0,61.0,2019_09_03,
EventRootCode,25256.0,12814.0,13079.0,44883.0,13515.0,4388.0,6666.0,6731.0,3444.0,2452.0,11377.0,4488.0,2859.0,2080.0,756.0,2021.0,8481.0,2744.0,10211.0,42.0,2019_09_04,
EventRootCode,24670.0,13143.0,13330.0,44051.0,14191.0,4305.0,6666.0,6940.0,3444.0,2351.0,11035.0,4415.0,2574.0,1785.0,570.0,1934.0,8674.0,2715.0,9492.0,59.0,2019_09_05,
EventRootCode,23340.0,11918.0,12765.0,41868.0,12528.0,3877.0,6041.0,6101.0,3535.0,2010.0,10143.0,4092.0,2377.0,1533.0,441.0,1606.0,7996.0,2423.0,8832.0,78.0,2019_09_06,
EventRootCode,14314.0,6897.0,7077.0,25659.0,8100.0,2236.0,3521.0,4268.0,1950.0,1195.0,5936.0,2442.0,1458.0,1025.0,276.0,1025.0,5107.0,1672.0,5780.0,57.0,2019_09_07,
EventRootCode,12761.0,6523.0,6612.0,24413.0,7703.0,1951.0,2850.0,3527.0,1827.0,1183.0,5519.0,2339.0,1467.0,980.0,313.0,1243.0,4020.0,1436.0,5513.0,18.0,2019_09_08,
EventRootCode,21282.0,11139.0,11808.0,40605.0,12680.0,3740.0,5295.0,5807.0,3693.0,1888.0,9848.0,3949.0,2395.0,1509.0,494.0,1889.0,6969.0,2145.0,8752.0,32.0,2019_09_09,
EventRootCode,24278.0,12228.0,12797.0,43503.0,14021.0,3763.0,5858.0,6177.0,4007.0,2062.0,11226.0,4342.0,2752.0,1604.0,523.0,2076.0,7914.0,2704.0,9895.0,72.0,2019_09_10,
EventRootCode,26006.0,12848.0,12443.0,44814.0,14982.0,4190.0,5756.0,6432.0,3643.0,2175.0,11650.0,4462.0,2647.0,1540.0,530.0,1730.0,8320.0,2843.0,10492.0,57.0,2019_09_11,
EventRootCode,25294.0,12803.0,12721.0,43673.0,14707.0,4070.0,6200.0,6480.0,3726.0,2205.0,11158.0,4594.0,2466.0,1401.0,527.0,1613.0,9172.0,2572.0,9254.0,51.0,2019_09_12,
EventRootCode,23530.0,11735.0,12395.0,41334.0,12792.0,3873.0,5468.0,6120.0,3467.0,2067.0,10588.0,4118.0,2296.0,1284.0,412.0,1428.0,8647.0,2558.0,8512.0,44.0,2019_09_13,
EventRootCode,14397.0,7037.0,7554.0,24444.0,7666.0,2323.0,3114.0,3803.0,2070.0,1182.0,6794.0,2407.0,1445.0,919.0,304.0,900.0,5192.0,1501.0,6557.0,49.0,2019_09_14,
EventRootCode,13580.0,6524.0,6936.0,22875.0,7215.0,2120.0,2902.0,3250.0,1903.0,1035.0,6490.0,2329.0,1470.0,932.0,288.0,862.0,4116.0,1496.0,6346.0,35.0,2019_09_15,
EventRootCode,23134.0,11649.0,13286.0,40703.0,12883.0,4012.0,4967.0,5644.0,3353.0,2014.0,11274.0,4183.0,2800.0,1463.0,480.0,1416.0,7000.0,2496.0,9434.0,45.0,2019_09_16,
EventRootCode,25450.0,12743.0,13492.0,42421.0,13550.0,4062.0,5802.0,5930.0,3564.0,2200.0,11885.0,4361.0,2482.0,1556.0,491.0,1473.0,7957.0,2612.0,9888.0,34.0,2019_09_17,
EventRootCode,26731.0,13575.0,14361.0,45165.0,14424.0,4069.0,6199.0,6471.0,3730.0,2290.0,11841.0,4831.0,2899.0,1545.0,479.0,1676.0,8384.0,2793.0,9889.0,65.0,2019_09_18,
EventRootCode,25825.0,13250.0,13835.0,46857.0,14727.0,4192.0,6080.0,6116.0,3738.0,2370.0,11763.0,4983.0,3080.0,1598.0,480.0,1591.0,8212.0,2725.0,9437.0,58.0,2019_09_19,
EventRootCode,24117.0,12762.0,13177.0,45276.0,14011.0,3941.0,5832.0,6048.0,3503.0,2051.0,11045.0,4378.0,3011.0,2860.0,549.0,2057.0,8148.0,2388.0,8850.0,61.0,2019_09_20,
EventRootCode,14624.0,7535.0,8076.0,27898.0,8626.0,2136.0,3516.0,3576.0,1899.0,1325.0,6720.0,2317.0,1659.0,1993.0,472.0,1250.0,4825.0,1459.0,5557.0,21.0,2019_09_21,
EventRootCode,13783.0,7111.0,8362.0,26483.0,7648.0,2059.0,3104.0,3270.0,1744.0,1334.0,6132.0,2270.0,1599.0,1284.0,290.0,1019.0,4142.0,1346.0,5435.0,24.0,2019_09_22,
EventRootCode,23283.0,11707.0,15338.0,49032.0,13797.0,3707.0,5516.0,5672.0,3183.0,2121.0,11208.0,3928.0,2349.0,1920.0,424.0,1640.0,7073.0,2249.0,8485.0,43.0,2019_09_23,1.0
EventRootCode,25895.0,13967.0,14987.0,50393.0,14494.0,3951.0,6334.0,6318.0,3711.0,2690.0,12988.0,4693.0,2618.0,1810.0,442.0,1815.0,8093.0,2408.0,8418.0,45.0,2019_09_24,
EventRootCode,26768.0,15019.0,14566.0,51252.0,15644.0,4373.0,6437.0,7196.0,4274.0,2762.0,13187.0,4735.0,2574.0,1647.0,455.0,2143.0,8567.0,2544.0,8629.0,45.0,2019_09_25,
EventRootCode,25744.0,13876.0,12806.0,47371.0,15220.0,4357.0,6107.0,6581.0,3990.0,2368.0,12436.0,4482.0,2652.0,1494.0,356.0,1931.0,8479.0,2452.0,8468.0,36.0,2019_09_26,
EventRootCode,26224.0,13301.0,12284.0,46166.0,14991.0,3843.0,5536.0,6653.0,3823.0,2226.0,12000.0,4412.0,2572.0,1936.0,590.0,1871.0,8831.0,2471.0,8538.0,48.0,2019_09_27,
EventRootCode,15700.0,7430.0,7233.0,28672.0,8845.0,2101.0,3204.0,4128.0,2300.0,1303.0,7077.0,2579.0,1436.0,1305.0,318.0,924.0,5266.0,1662.0,6072.0,34.0,2019_09_28,
EventRootCode,12995.0,6500.0,5526.0,24123.0,7223.0,1707.0,2729.0,3427.0,1856.0,1095.0,5987.0,2179.0,1180.0,954.0,244.0,911.0,4083.0,1467.0,5715.0,35.0,2019_09_29,
EventRootCode,21717.0,10998.0,10470.0,37791.0,11947.0,3349.0,5130.0,5560.0,3203.0,1881.0,9981.0,3903.0,2174.0,1458.0,442.0,1235.0,7017.0,2037.0,8521.0,34.0,2019_09_30,
EventRootCode,24709.0,12507.0,12203.0,41948.0,12977.0,3750.0,5872.0,6161.0,3835.0,2190.0,10902.0,4264.0,2204.0,1880.0,422.0,1425.0,8509.0,2323.0,9543.0,20.0,2019_10_01,
EventRootCode,26030.0,13277.0,13751.0,46154.0,13807.0,3904.0,5853.0,6470.0,3573.0,2302.0,11773.0,4572.0,2508.0,1738.0,520.0,1578.0,8660.0,2377.0,10112.0,24.0,2019_10_02,
EventRootCode,25817.0,14040.0,13086.0,45972.0,14287.0,4360.0,6104.0,5985.0,3826.0,2377.0,11763.0,4597.0,2558.0,1861.0,499.0,1450.0,8569.0,2462.0,9628.0,40.0,2019_10_03,
EventRootCode,23568.0,13639.0,11753.0,41709.0,13429.0,3901.0,5703.0,6081.0,3662.0,2559.0,11092.0,4227.0,2353.0,1695.0,447.0,1403.0,8427.0,2334.0,8751.0,38.0,2019_10_04,
EventRootCode,14376.0,7965.0,6943.0,25688.0,7718.0,2005.0,3074.0,3763.0,2322.0,1329.0,6736.0,2543.0,1416.0,1173.0,246.0,1017.0,5284.0,1650.0,5625.0,18.0,2019_10_05,1.0
EventRootCode,12277.0,7086.0,5994.0,23243.0,6853.0,1829.0,2663.0,3219.0,1775.0,1117.0,5889.0,2265.0,1265.0,1197.0,262.0,849.0,4092.0,1349.0,5549.0,12.0,2019_10_06,
EventRootCode,21501.0,11253.0,11346.0,39117.0,11797.0,3458.0,4945.0,6547.0,2946.0,1936.0,9881.0,3854.0,2730.0,1951.0,540.0,1438.0,7268.0,2361.0,8293.0,60.0,2019_10_07,
EventRootCode,23873.0,12729.0,12361.0,40508.0,13364.0,3857.0,5678.0,6957.0,3244.0,2389.0,11683.0,4318.0,2874.0,1838.0,576.0,1766.0,8166.0,2307.0,9078.0,83.0,2019_10_08,
EventRootCode,25426.0,13416.0,13545.0,43298.0,13478.0,4024.0,5912.0,6905.0,3454.0,2265.0,12515.0,4465.0,3035.0,1708.0,645.0,1805.0,8761.0,2615.0,10407.0,84.0,2019_10_09,
EventRootCode,25738.0,13518.0,13729.0,44788.0,14378.0,4443.0,6430.0,7448.0,3646.0,2486.0,13396.0,4405.0,2864.0,1780.0,506.0,1929.0,8782.0,3035.0,11028.0,130.0,2019_10_10,
EventRootCode,25568.0,12806.0,12831.0,44408.0,14493.0,3808.0,6131.0,7018.0,3472.0,2389.0,12393.0,4437.0,2869.0,1914.0,591.0,1849.0,9189.0,2995.0,10698.0,116.0,2019_10_11,
EventRootCode,14866.0,7295.0,7352.0,26500.0,8488.0,2347.0,3310.0,4245.0,1907.0,1369.0,7413.0,2567.0,1792.0,1333.0,507.0,1129.0,5635.0,1583.0,7277.0,61.0,2019_10_12,
EventRootCode,13295.0,6683.0,6646.0,24052.0,7749.0,2105.0,3005.0,4227.0,1684.0,1240.0,6312.0,2152.0,1656.0,1249.0,434.0,1034.0,4111.0,1503.0,6655.0,67.0,2019_10_13,
EventRootCode,20312.0,10547.0,11103.0,37210.0,12423.0,3684.0,5139.0,6491.0,2781.0,2193.0,9788.0,3482.0,2434.0,1558.0,746.0,1762.0,7367.0,2361.0,10133.0,109.0,2019_10_14,
EventRootCode,24189.0,12344.0,13128.0,43394.0,14153.0,4089.0,6059.0,7399.0,3503.0,2496.0,11420.0,4368.0,2670.0,1749.0,764.0,2153.0,8256.0,2848.0,10983.0,61.0,2019_10_15,
EventRootCode,25919.0,14203.0,14006.0,46892.0,14773.0,4256.0,6464.0,7822.0,3707.0,2611.0,12164.0,5112.0,2863.0,1585.0,663.0,2052.0,8631.0,2757.0,10709.0,103.0,2019_10_16,2.0
EventRootCode,25669.0,13240.0,14102.0,45482.0,14905.0,4204.0,6015.0,7703.0,3509.0,2535.0,12215.0,5031.0,2709.0,1606.0,523.0,1964.0,8408.0,2499.0,9908.0,111.0,2019_10_17,
EventRootCode,24272.0,12158.0,13495.0,41447.0,13754.0,3839.0,5784.0,7376.0,3177.0,2325.0,11439.0,4457.0,2218.0,1852.0,491.0,1704.0,8725.0,2358.0,10096.0,132.0,2019_10_18,
EventRootCode,15060.0,7495.0,7531.0,25262.0,8459.0,2184.0,3178.0,4305.0,2023.0,1522.0,7099.0,2703.0,1452.0,1306.0,355.0,1097.0,5397.0,1446.0,6551.0,67.0,2019_10_19,
EventRootCode,12968.0,6161.0,6447.0,23824.0,7041.0,2095.0,2777.0,3826.0,1701.0,1244.0,5828.0,2127.0,1219.0,1038.0,381.0,1011.0,4052.0,1515.0,6209.0,111.0,2019_10_20,1.0
EventRootCode,21354.0,11033.0,11500.0,39811.0,11691.0,3767.0,5116.0,6272.0,2766.0,1867.0,10125.0,3744.0,2276.0,1690.0,500.0,1479.0,6801.0,2211.0,8280.0,125.0,2019_10_21,
EventRootCode,24554.0,12654.0,13028.0,44148.0,13796.0,3818.0,5825.0,7332.0,3403.0,2164.0,11447.0,4416.0,2518.0,1615.0,691.0,1653.0,7997.0,2237.0,9458.0,76.0,2019_10_22,
EventRootCode,25984.0,13008.0,13610.0,45032.0,14589.0,4322.0,6135.0,8183.0,3730.0,2424.0,11670.0,4746.0,2552.0,1753.0,932.0,1775.0,8587.0,2581.0,9976.0,105.0,2019_10_23,
EventRootCode,25417.0,12772.0,12992.0,44489.0,14781.0,3927.0,5984.0,7570.0,3765.0,2371.0,11620.0,4395.0,2384.0,1587.0,748.0,1695.0,8699.0,3003.0,9514.0,168.0,2019_10_24,
EventRootCode,22786.0,11844.0,11085.0,40534.0,13848.0,3859.0,5703.0,6842.0,3687.0,2214.0,10364.0,4092.0,2240.0,1586.0,658.0,1465.0,8302.0,2549.0,8381.0,104.0,2019_10_25,
EventRootCode,14097.0,7267.0,6883.0,25839.0,8407.0,2228.0,3345.0,4000.0,2268.0,1276.0,6294.0,2541.0,1370.0,1222.0,410.0,964.0,5068.0,1673.0,6024.0,101.0,2019_10_26,
EventRootCode,13295.0,6183.0,5589.0,22407.0,8138.0,2121.0,2995.0,3664.0,1841.0,1111.0,5408.0,2253.0,1401.0,1077.0,349.0,812.0,4253.0,1664.0,8303.0,54.0,2019_10_27,
EventRootCode,21367.0,10291.0,10963.0,37807.0,13489.0,3625.0,5020.0,5694.0,3217.0,1868.0,9100.0,3706.0,2026.0,1426.0,579.0,1230.0,7133.0,2645.0,10351.0,76.0,2019_10_28,
EventRootCode,24459.0,12318.0,11655.0,43190.0,13757.0,3950.0,5842.0,6423.0,3471.0,2223.0,10552.0,4407.0,2275.0,1621.0,559.0,1457.0,8212.0,2638.0,10307.0,91.0,2019_10_29,
EventRootCode,24327.0,12449.0,11711.0,41658.0,14602.0,4036.0,6072.0,6321.0,3608.0,2074.0,11261.0,4861.0,2214.0,1711.0,493.0,1557.0,8069.0,2457.0,9896.0,105.0,2019_10_30,
EventRootCode,24452.0,12031.0,11592.0,41309.0,14277.0,4048.0,5941.0,6064.0,3768.0,2176.0,10933.0,4694.0,2316.0,1528.0,587.0,1685.0,7997.0,2534.0,9615.0,82.0,2019_10_31,
EventRootCode,21517.0,10662.0,10613.0,36965.0,12658.0,3510.0,5460.0,5909.0,3255.0,1873.0,9399.0,3745.0,1991.0,1535.0,539.0,1412.0,7723.0,2142.0,8706.0,55.0,2019_11_01,
EventRootCode,14633.0,7194.0,6699.0,25980.0,8154.0,2190.0,3387.0,3631.0,2192.0,1215.0,6435.0,2605.0,1156.0,1070.0,332.0,876.0,4978.0,1717.0,6581.0,28.0,2019_11_02,
EventRootCode,12076.0,5957.0,5936.0,22214.0,6820.0,1812.0,2807.0,3046.0,1603.0,1147.0,5235.0,2304.0,1039.0,1062.0,294.0,729.0,4044.0,1257.0,5425.0,41.0,2019_11_03,
EventRootCode,20701.0,10647.0,10815.0,38541.0,11957.0,3623.0,4840.0,5716.0,2772.0,1932.0,9530.0,3749.0,2047.0,1843.0,408.0,1403.0,6949.0,2392.0,8615.0,69.0,2019_11_04,
EventRootCode,23931.0,12349.0,12713.0,40331.0,13959.0,4031.0,5809.0,6476.0,3387.0,2310.0,10758.0,4352.0,2192.0,1826.0,443.0,1567.0,8231.0,2827.0,9758.0,62.0,2019_11_05,
EventRootCode,24977.0,12591.0,12091.0,42211.0,15051.0,4075.0,6118.0,6716.0,3768.0,2329.0,11164.0,4923.0,2283.0,1720.0,521.0,1422.0,8591.0,2826.0,10643.0,65.0,2019_11_06,
EventRootCode,24777.0,12396.0,12736.0,42711.0,14218.0,4028.0,6352.0,6364.0,3930.0,2074.0,11163.0,4630.0,2460.0,1482.0,571.0,1430.0,8738.0,2590.0,9613.0,95.0,2019_11_07,
EventRootCode,23327.0,12004.0,11798.0,40840.0,13334.0,3974.0,5647.0,6405.0,3596.0,2172.0,10611.0,4290.0,2524.0,1580.0,579.0,1354.0,8526.0,2521.0,9076.0,84.0,2019_11_08,
EventRootCode,14860.0,7692.0,6931.0,26450.0,9069.0,2087.0,3264.0,4228.0,2192.0,1272.0,6292.0,2700.0,1470.0,1004.0,525.0,677.0,4994.0,1621.0,6077.0,25.0,2019_11_09,
EventRootCode,12774.0,6290.0,5824.0,22928.0,7533.0,1787.0,2750.0,3462.0,1769.0,1005.0,5164.0,2160.0,1127.0,788.0,245.0,659.0,3652.0,1330.0,5955.0,27.0,2019_11_10,
EventRootCode,21114.0,10434.0,10536.0,36563.0,13145.0,3586.0,5098.0,5525.0,2756.0,1775.0,9128.0,3648.0,1799.0,1635.0,432.0,1133.0,6560.0,2097.0,9169.0,53.0,2019_11_11,
EventRootCode,23946.0,11995.0,12239.0,41722.0,14223.0,4001.0,5580.0,6376.0,3263.0,1976.0,10890.0,4088.0,2450.0,1691.0,452.0,1443.0,7745.0,2619.0,10527.0,38.0,2019_11_12,
EventRootCode,24348.0,12510.0,13115.0,42443.0,13377.0,4329.0,5797.0,6440.0,3808.0,2279.0,11542.0,4375.0,2557.0,1841.0,461.0,1618.0,8430.0,2663.0,10286.0,43.0,2019_11_13,
EventRootCode,25551.0,12856.0,11939.0,43989.0,13229.0,4103.0,5921.0,6672.0,4178.0,2336.0,11729.0,4592.0,2475.0,1625.0,414.0,1612.0,9137.0,2651.0,10776.0,96.0,2019_11_14,
EventRootCode,23694.0,12545.0,11563.0,40977.0,12610.0,3886.0,5633.0,6633.0,3839.0,2272.0,11478.0,4307.0,2246.0,1579.0,404.0,1558.0,9014.0,2609.0,9669.0,109.0,2019_11_15,
EventRootCode,14444.0,7679.0,6829.0,25105.0,7827.0,2184.0,3306.0,4200.0,2235.0,1342.0,7106.0,2777.0,1347.0,1207.0,296.0,1024.0,5662.0,1872.0,7035.0,51.0,2019_11_16,
EventRootCode,12705.0,6364.0,5770.0,23120.0,6862.0,2018.0,2870.0,3615.0,1877.0,1125.0,5989.0,2359.0,1233.0,1182.0,309.0,686.0,4152.0,1416.0,5703.0,43.0,2019_11_17,
EventRootCode,20962.0,11162.0,10337.0,36434.0,12407.0,3771.0,5050.0,5671.0,3120.0,1994.0,9952.0,3843.0,2100.0,1975.0,490.0,1387.0,7394.0,2158.0,8520.0,46.0,2019_11_18,
EventRootCode,24385.0,12632.0,10863.0,40761.0,13316.0,3684.0,5705.0,7356.0,3635.0,2299.0,11442.0,4634.0,2269.0,1844.0,521.0,1445.0,8467.0,2868.0,8948.0,45.0,2019_11_19,
EventRootCode,25867.0,13399.0,12378.0,43319.0,14493.0,4230.0,6288.0,6978.0,4140.0,2670.0,12375.0,4806.0,2525.0,1802.0,467.0,1463.0,8808.0,2689.0,9974.0,51.0,2019_11_20,
EventRootCode,25556.0,13554.0,11872.0,43627.0,14287.0,4195.0,6479.0,7053.0,4086.0,2368.0,12446.0,4583.0,2271.0,1759.0,309.0,1548.0,9360.0,2788.0,9659.0,70.0,2019_11_21,
EventRootCode,23417.0,12354.0,10533.0,40346.0,13242.0,3982.0,5555.0,6167.0,3688.0,2109.0,10749.0,4009.0,2142.0,1835.0,355.0,1338.0,8991.0,2325.0,8743.0,90.0,2019_11_22,
EventRootCode,14429.0,7373.0,6590.0,26119.0,8109.0,2232.0,3390.0,3940.0,2491.0,1417.0,7090.0,2408.0,1527.0,1314.0,309.0,904.0,5822.0,1473.0,6015.0,61.0,2019_11_23,
EventRootCode,12480.0,6082.0,5532.0,21949.0,7344.0,1833.0,2917.0,3174.0,1983.0,1156.0,5809.0,2301.0,1097.0,1054.0,281.0,819.0,4497.0,1204.0,5512.0,27.0,2019_11_24,
EventRootCode,20484.0,10368.0,10030.0,34865.0,11940.0,3501.0,5424.0,5255.0,3200.0,1892.0,9580.0,3635.0,1998.0,1572.0,379.0,1232.0,7471.0,2147.0,8185.0,46.0,2019_11_25,
EventRootCode,22874.0,11735.0,11484.0,38563.0,13300.0,3819.0,5873.0,6496.0,3595.0,2256.0,10744.0,4324.0,2318.0,2093.0,438.0,1385.0,8559.0,2573.0,9220.0,41.0,2019_11_26,
EventRootCode,22951.0,11781.0,11014.0,38887.0,13357.0,4067.0,5814.0,6490.0,3344.0,2191.0,10445.0,4191.0,2250.0,1736.0,566.0,1396.0,8676.0,2576.0,8967.0,33.0,2019_11_27,
EventRootCode,18612.0,9238.0,8537.0,32353.0,11274.0,3072.0,4360.0,4915.0,2797.0,1726.0,9476.0,3218.0,1879.0,1710.0,427.0,1124.0,7029.0,1949.0,6983.0,22.0,2019_11_28,
EventRootCode,16621.0,8546.0,8411.0,31292.0,10382.0,2844.0,4198.0,4497.0,2609.0,1585.0,7813.0,3072.0,1704.0,1875.0,328.0,1010.0,5790.0,1709.0,6547.0,25.0,2019_11_29,
EventRootCode,11729.0,6033.0,5218.0,21521.0,7242.0,1869.0,2824.0,3264.0,1898.0,995.0,5446.0,1844.0,1240.0,1251.0,227.0,623.0,4207.0,1390.0,5644.0,37.0,2019_11_30,
EventRootCode,11360.0,6146.0,5223.0,20870.0,6872.0,1558.0,2665.0,3201.0,1721.0,1034.0,5505.0,1886.0,1254.0,1177.0,205.0,634.0,4026.0,1357.0,5707.0,61.0,2019_12_01,
EventRootCode,19015.0,10057.0,10244.0,36496.0,11714.0,3250.0,4908.0,5177.0,3207.0,1821.0,9209.0,3526.0,2026.0,1576.0,292.0,1207.0,6928.0,2284.0,8625.0,49.0,2019_12_02,
EventRootCode,23382.0,11982.0,12537.0,43257.0,13396.0,3931.0,6066.0,6088.0,3629.0,2118.0,10983.0,4223.0,2517.0,1592.0,432.0,1619.0,7952.0,2558.0,9195.0,59.0,2019_12_03,
EventRootCode,24784.0,12771.0,12336.0,45476.0,14265.0,3970.0,6124.0,6268.0,3852.0,2263.0,11869.0,4488.0,2543.0,1618.0,403.0,1662.0,8057.0,2742.0,9283.0,36.0,2019_12_04,
EventRootCode,23804.0,12268.0,11865.0,40796.0,13590.0,3943.0,5899.0,5992.0,3605.0,2101.0,11614.0,4358.0,2371.0,1628.0,492.0,1562.0,8239.0,2736.0,9669.0,35.0,2019_12_05,
EventRootCode,22321.0,11245.0,10755.0,38816.0,12501.0,3766.0,5540.0,5699.0,3279.0,2023.0,10579.0,3929.0,2208.0,1576.0,425.0,1365.0,8113.0,2996.0,10004.0,61.0,2019_12_06,1.0
EventRootCode,14219.0,7064.0,6214.0,25084.0,7654.0,2087.0,3441.0,3991.0,2098.0,1302.0,6834.0,2273.0,1318.0,1115.0,348.0,895.0,5179.0,2290.0,7474.0,19.0,2019_12_07,
EventRootCode,12169.0,6146.0,5511.0,22397.0,7186.0,1698.0,2985.0,3096.0,1730.0,1113.0,5565.0,2102.0,1269.0,1064.0,280.0,827.0,3612.0,1598.0,6305.0,28.0,2019_12_08,
EventRootCode,20249.0,10770.0,10373.0,37267.0,12671.0,3740.0,5235.0,5434.0,3152.0,1851.0,9659.0,3736.0,2103.0,1682.0,402.0,1289.0,6622.0,2192.0,8033.0,57.0,2019_12_09,
EventRootCode,24138.0,13071.0,12945.0,41636.0,14525.0,4436.0,6065.0,6185.0,3744.0,2215.0,11327.0,4284.0,2358.0,1954.0,436.0,1769.0,7933.0,2656.0,8726.0,74.0,2019_12_10,
EventRootCode,24221.0,12554.0,11173.0,38800.0,14292.0,4133.0,6139.0,6155.0,3649.0,2158.0,11694.0,4153.0,2381.0,2037.0,530.0,2012.0,8522.0,2780.0,9944.0,116.0,2019_12_11,
EventRootCode,23315.0,12532.0,11343.0,39450.0,14019.0,4096.0,6248.0,5918.0,3490.0,2036.0,11416.0,4370.0,2300.0,1992.0,469.0,1891.0,8242.0,2874.0,9611.0,50.0,2019_12_12,
EventRootCode,22464.0,11671.0,11204.0,38544.0,14324.0,4005.0,5519.0,5764.0,3200.0,1960.0,11255.0,4235.0,2314.0,1977.0,374.0,1962.0,7586.0,2609.0,9221.0,33.0,2019_12_13,
EventRootCode,13255.0,6988.0,6035.0,22768.0,8325.0,2035.0,3116.0,3348.0,1980.0,1115.0,6764.0,2411.0,1364.0,1463.0,273.0,1156.0,4964.0,1756.0,5817.0,21.0,2019_12_14,
EventRootCode,11644.0,5946.0,5198.0,20895.0,7106.0,1854.0,2904.0,3000.0,1775.0,1033.0,5723.0,2071.0,1275.0,1494.0,234.0,918.0,4055.0,1434.0,5448.0,41.0,2019_12_15,
EventRootCode,18732.0,10042.0,9356.0,32948.0,12297.0,3361.0,4795.0,5342.0,2822.0,1899.0,9607.0,3327.0,2045.0,2847.0,402.0,1569.0,7269.0,2505.0,7999.0,72.0,2019_12_16,
EventRootCode,22278.0,11997.0,10382.0,36838.0,12997.0,4043.0,5702.0,6196.0,3190.0,2119.0,11022.0,4195.0,2112.0,2723.0,433.0,1817.0,9027.0,2755.0,8778.0,125.0,2019_12_17,
EventRootCode,22853.0,11972.0,10369.0,38476.0,14128.0,3777.0,5981.0,6111.0,3306.0,2156.0,11287.0,4540.0,2333.0,2738.0,472.0,1782.0,9018.0,2666.0,8860.0,87.0,2019_12_18,
EventRootCode,22011.0,11948.0,10430.0,38479.0,13879.0,3689.0,5814.0,6354.0,3285.0,2272.0,11381.0,4588.0,2195.0,3233.0,377.0,1814.0,9840.0,2455.0,8620.0,90.0,2019_12_19,
EventRootCode,21205.0,11337.0,10156.0,37667.0,13040.0,3623.0,5586.0,5893.0,3202.0,1954.0,10932.0,4440.0,2052.0,2697.0,417.0,1754.0,9151.0,2469.0,8602.0,45.0,2019_12_20,
EventRootCode,13388.0,7006.0,6075.0,24271.0,7721.0,1916.0,3335.0,3463.0,2058.0,1251.0,6766.0,2633.0,1385.0,2018.0,244.0,1147.0,5539.0,1669.0,6510.0,42.0,2019_12_21,
EventRootCode,10959.0,5682.0,5452.0,20110.0,7320.0,1848.0,2984.0,3064.0,1664.0,1116.0,5385.0,2308.0,1202.0,1533.0,221.0,852.0,3851.0,1373.0,5502.0,61.0,2019_12_22,
EventRootCode,16370.0,8818.0,8322.0,30357.0,11241.0,2983.0,4413.0,5215.0,2896.0,1690.0,8425.0,3322.0,1688.0,1924.0,330.0,1281.0,6663.0,1977.0,7737.0,67.0,2019_12_23,
EventRootCode,15299.0,8228.0,7435.0,27714.0,9449.0,2614.0,3932.0,4683.0,2516.0,1525.0,7309.0,2781.0,1470.0,1710.0,316.0,1193.0,6240.0,1789.0,7166.0,41.0,2019_12_24,
EventRootCode,10490.0,5269.0,4410.0,18465.0,6724.0,1831.0,2485.0,3076.0,1454.0,973.0,4490.0,1779.0,997.0,1193.0,254.0,714.0,3639.0,1233.0,4873.0,22.0,2019_12_25,
EventRootCode,12532.0,6596.0,6129.0,22380.0,7958.0,2482.0,3433.0,3944.0,1966.0,1143.0,6553.0,2435.0,1472.0,1601.0,370.0,805.0,4760.0,1723.0,6887.0,31.0,2019_12_26,
EventRootCode,14809.0,7108.0,6517.0,24130.0,8482.0,2665.0,3834.0,4289.0,2439.0,1296.0,7347.0,2866.0,1478.0,1726.0,442.0,930.0,6094.0,1953.0,7458.0,24.0,2019_12_27,
EventRootCode,10792.0,5312.0,4488.0,17810.0,5832.0,1772.0,2649.0,3217.0,1680.0,925.0,5759.0,2087.0,1093.0,1454.0,260.0,714.0,4264.0,1223.0,5963.0,25.0,2019_12_28,
EventRootCode,9931.0,5127.0,4325.0,18028.0,6010.0,1735.0,2282.0,3147.0,1439.0,966.0,5123.0,1895.0,1110.0,1338.0,301.0,709.0,3868.0,1182.0,6210.0,14.0,2019_12_29,
EventRootCode,15162.0,8088.0,7255.0,27183.0,9354.0,2664.0,3559.0,4865.0,2310.0,1522.0,8112.0,2742.0,1990.0,1698.0,431.0,1017.0,6371.0,2079.0,9178.0,34.0,2019_12_30,
EventRootCode,16199.0,8223.0,7777.0,28516.0,9959.0,2635.0,3900.0,5271.0,2283.0,1579.0,8663.0,3094.0,1939.0,1926.0,476.0,1231.0,7336.0,2484.0,9466.0,29.0,2019_12_31,
